data/DS0013.CSV

Memory Length,25000,
Trigger Level,-400mV,
Source,CH2,
Probe Ratio,1.000E+01,
Vertical Units,V,
Vertical Scale,1.000E+00,
Vertical Position,0.000E+00,
Horizontal Units,S,
Horizontal Scale,2.000E-03,
Horizontal Position,-4.680E-03,
Horizontal Mode,Main,
Sampling Period,1.000E-06,
Firmware,V1.24,
Time,11-Jul-23 15:34:52,
Mode,Detail,
Waveform Data,
-1.718000e-02,-1.64e+00,
-1.717900e-02,-1.64e+00,
-1.717800e-02,-1.64e+00,
-1.717700e-02,-1.64e+00,
-1.717600e-02,-1.64e+00,
-1.717500e-02,-1.60e+00,
-1.717400e-02,-1.64e+00,
-1.717300e-02,-1.64e+00,
-1.717200e-02,-1.60e+00,
-1.717100e-02,-1.60e+00,
-1.717000e-02,-1.60e+00,
-1.716900e-02,-1.60e+00,
-1.716800e-02,-1.60e+00,
-1.716700e-02,-1.60e+00,
-1.716600e-02,-1.60e+00,
-1.716500e-02,-1.60e+00,
-1.716400e-02,-1.60e+00,
-1.716300e-02,-1.60e+00,
-1.716200e-02,-1.60e+00,
-1.716100e-02,-1.56e+00,
-1.716000e-02,-1.60e+00,
-1.715900e-02,-1.56e+00,
-1.715800e-02,-1.56e+00,
-1.715700e-02,-1.56e+00,
-1.715600e-02,-1.56e+00,
-1.715500e-02,-1.56e+00,
-1.715400e-02,-1.56e+00,
-1.715300e-02,-1.56e+00,
-1.715200e-02,-1.56e+00,
-1.715100e-02,-1.56e+00,
-1.715000e-02,-1.56e+00,
-1.714900e-02,-1.56e+00,
-1.714800e-02,-1.56e+00,
-1.714700e-02,-1.56e+00,
-1.714600e-02,-1.56e+00,
-1.714500e-02,-1.56e+00,
-1.714400e-02,-1.52e+00,
-1.714300e-02,-1.52e+00,
-1.714200e-02,-1.52e+00,
-1.714100e-02,-1.52e+00,
-1.714000e-02,-1.52e+00,
-1.713900e-02,-1.52e+00,
-1.713800e-02,-1.52e+00,
-1.713700e-02,-1.52e+00,
-1.713600e-02,-1.52e+00,
-1.713500e-02,-1.52e+00,
-1.713400e-02,-1.52e+00,
-1.713300e-02,-1.52e+00,
-1.713200e-02,-1.52e+00,
-1.713100e-02,-1.52e+00,
-1.713000e-02,-1.52e+00,
-1.712900e-02,-1.52e+00,
-1.712800e-02,-1.48e+00,
-1.712700e-02,-1.48e+00,
-1.712600e-02,-1.48e+00,
-1.712500e-02,-1.48e+00,
-1.712400e-02,-1.48e+00,
-1.712300e-02,-1.48e+00,
-1.712200e-02,-1.48e+00,
-1.712100e-02,-1.48e+00,
-1.712000e-02,-1.44e+00,
-1.711900e-02,-1.44e+00,
-1.711800e-02,-1.44e+00,
-1.711700e-02,-1.44e+00,
-1.711600e-02,-1.44e+00,
-1.711500e-02,-1.44e+00,
-1.711400e-02,-1.44e+00,
-1.711300e-02,-1.44e+00,
-1.711200e-02,-1.44e+00,
-1.711100e-02,-1.44e+00,
-1.711000e-02,-1.44e+00,
-1.710900e-02,-1.44e+00,
-1.710800e-02,-1.44e+00,
-1.710700e-02,-1.44e+00,
-1.710600e-02,-1.40e+00,
-1.710500e-02,-1.40e+00,
-1.710400e-02,-1.40e+00,
-1.710300e-02,-1.40e+00,
-1.710200e-02,-1.40e+00,
-1.710100e-02,-1.40e+00,
-1.710000e-02,-1.40e+00,
-1.709900e-02,-1.40e+00,
-1.709800e-02,-1.40e+00,
-1.709700e-02,-1.40e+00,
-1.709600e-02,-1.40e+00,
-1.709500e-02,-1.40e+00,
-1.709400e-02,-1.40e+00,
-1.709300e-02,-1.40e+00,
-1.709200e-02,-1.40e+00,
-1.709100e-02,-1.36e+00,
-1.709000e-02,-1.36e+00,
-1.708900e-02,-1.36e+00,
-1.708800e-02,-1.36e+00,
-1.708700e-02,-1.36e+00,
-1.708600e-02,-1.36e+00,
-1.708500e-02,-1.36e+00,
-1.708400e-02,-1.36e+00,
-1.708300e-02,-1.36e+00,
-1.708200e-02,-1.32e+00,
-1.708100e-02,-1.36e+00,
-1.708000e-02,-1.36e+00,
-1.707900e-02,-1.32e+00,
-1.707800e-02,-1.32e+00,
-1.707700e-02,-1.32e+00,
-1.707600e-02,-1.36e+00,
-1.707500e-02,-1.32e+00,
-1.707400e-02,-1.32e+00,
-1.707300e-02,-1.36e+00,
-1.707200e-02,-1.32e+00,
-1.707100e-02,-1.32e+00,
-1.707000e-02,-1.32e+00,
-1.706900e-02,-1.32e+00,
-1.706800e-02,-1.32e+00,
-1.706700e-02,-1.32e+00,
-1.706600e-02,-1.32e+00,
-1.706500e-02,-1.32e+00,
-1.706400e-02,-1.32e+00,
-1.706300e-02,-1.28e+00,
-1.706200e-02,-1.28e+00,
-1.706100e-02,-1.28e+00,
-1.706000e-02,-1.28e+00,
-1.705900e-02,-1.28e+00,
-1.705800e-02,-1.28e+00,
-1.705700e-02,-1.28e+00,
-1.705600e-02,-1.28e+00,
-1.705500e-02,-1.28e+00,
-1.705400e-02,-1.28e+00,
-1.705300e-02,-1.28e+00,
-1.705200e-02,-1.28e+00,
-1.705100e-02,-1.28e+00,
-1.705000e-02,-1.24e+00,
-1.704900e-02,-1.24e+00,
-1.704800e-02,-1.28e+00,
-1.704700e-02,-1.24e+00,
-1.704600e-02,-1.24e+00,
-1.704500e-02,-1.24e+00,
-1.704400e-02,-1.24e+00,
-1.704300e-02,-1.24e+00,
-1.704200e-02,-1.24e+00,
-1.704100e-02,-1.24e+00,
-1.704000e-02,-1.24e+00,
-1.703900e-02,-1.24e+00,
-1.703800e-02,-1.24e+00,
-1.703700e-02,-1.24e+00,
-1.703600e-02,-1.20e+00,
-1.703500e-02,-1.20e+00,
-1.703400e-02,-1.20e+00,
-1.703300e-02,-1.20e+00,
-1.703200e-02,-1.20e+00,
-1.703100e-02,-1.20e+00,
-1.703000e-02,-1.20e+00,
-1.702900e-02,-1.20e+00,
-1.702800e-02,-1.20e+00,
-1.702700e-02,-1.20e+00,
-1.702600e-02,-1.20e+00,
-1.702500e-02,-1.20e+00,
-1.702400e-02,-1.16e+00,
-1.702300e-02,-1.20e+00,
-1.702200e-02,-1.20e+00,
-1.702100e-02,-1.16e+00,
-1.702000e-02,-1.16e+00,
-1.701900e-02,-1.16e+00,
-1.701800e-02,-1.20e+00,
-1.701700e-02,-1.16e+00,
-1.701600e-02,-1.16e+00,
-1.701500e-02,-1.16e+00,
-1.701400e-02,-1.16e+00,
-1.701300e-02,-1.16e+00,
-1.701200e-02,-1.16e+00,
-1.701100e-02,-1.16e+00,
-1.701000e-02,-1.12e+00,
-1.700900e-02,-1.12e+00,
-1.700800e-02,-1.12e+00,
-1.700700e-02,-1.12e+00,
-1.700600e-02,-1.12e+00,
-1.700500e-02,-1.12e+00,
-1.700400e-02,-1.12e+00,
-1.700300e-02,-1.12e+00,
-1.700200e-02,-1.12e+00,
-1.700100e-02,-1.12e+00,
-1.700000e-02,-1.12e+00,
-1.699900e-02,-1.12e+00,
-1.699800e-02,-1.12e+00,
-1.699700e-02,-1.12e+00,
-1.699600e-02,-1.12e+00,
-1.699500e-02,-1.12e+00,
-1.699400e-02,-1.08e+00,
-1.699300e-02,-1.08e+00,
-1.699200e-02,-1.12e+00,
-1.699100e-02,-1.08e+00,
-1.699000e-02,-1.12e+00,
-1.698900e-02,-1.08e+00,
-1.698800e-02,-1.08e+00,
-1.698700e-02,-1.08e+00,
-1.698600e-02,-1.08e+00,
-1.698500e-02,-1.08e+00,
-1.698400e-02,-1.08e+00,
-1.698300e-02,-1.08e+00,
-1.698200e-02,-1.08e+00,
-1.698100e-02,-1.08e+00,
-1.698000e-02,-1.08e+00,
-1.697900e-02,-1.08e+00,
-1.697800e-02,-1.04e+00,
-1.697700e-02,-1.04e+00,
-1.697600e-02,-1.04e+00,
-1.697500e-02,-1.04e+00,
-1.697400e-02,-1.04e+00,
-1.697300e-02,-1.04e+00,
-1.697200e-02,-1.04e+00,
-1.697100e-02,-1.04e+00,
-1.697000e-02,-1.04e+00,
-1.696900e-02,-1.04e+00,
-1.696800e-02,-1.04e+00,
-1.696700e-02,-1.04e+00,
-1.696600e-02,-1.04e+00,
-1.696500e-02,-1.04e+00,
-1.696400e-02,-1.04e+00,
-1.696300e-02,-1.04e+00,
-1.696200e-02,-1.00e+00,
-1.696100e-02,-1.04e+00,
-1.696000e-02,-1.00e+00,
-1.695900e-02,-1.00e+00,
-1.695800e-02,-1.00e+00,
-1.695700e-02,-1.00e+00,
-1.695600e-02,-1.00e+00,
-1.695500e-02,-1.00e+00,
-1.695400e-02,-1.00e+00,
-1.695300e-02,-1.00e+00,
-1.695200e-02,-1.00e+00,
-1.695100e-02,-1.00e+00,
-1.695000e-02,-1.00e+00,
-1.694900e-02,-9.60e-01,
-1.694800e-02,-1.00e+00,
-1.694700e-02,-9.60e-01,
-1.694600e-02,-9.60e-01,
-1.694500e-02,-9.60e-01,
-1.694400e-02,-9.60e-01,
-1.694300e-02,-9.60e-01,
-1.694200e-02,-9.60e-01,
-1.694100e-02,-9.60e-01,
-1.694000e-02,-9.60e-01,
-1.693900e-02,-9.60e-01,
-1.693800e-02,-9.20e-01,
-1.693700e-02,-9.60e-01,
-1.693600e-02,-9.60e-01,
-1.693500e-02,-9.60e-01,
-1.693400e-02,-9.60e-01,
-1.693300e-02,-9.60e-01,
-1.693200e-02,-9.20e-01,
-1.693100e-02,-9.20e-01,
-1.693000e-02,-9.20e-01,
-1.692900e-02,-9.20e-01,
-1.692800e-02,-9.20e-01,
-1.692700e-02,-9.20e-01,
-1.692600e-02,-9.20e-01,
-1.692500e-02,-9.20e-01,
-1.692400e-02,-9.20e-01,
-1.692300e-02,-9.20e-01,
-1.692200e-02,-9.20e-01,
-1.692100e-02,-8.80e-01,
-1.692000e-02,-9.20e-01,
-1.691900e-02,-8.80e-01,
-1.691800e-02,-8.80e-01,
-1.691700e-02,-8.80e-01,
-1.691600e-02,-8.80e-01,
-1.691500e-02,-8.80e-01,
-1.691400e-02,-8.80e-01,
-1.691300e-02,-8.80e-01,
-1.691200e-02,-8.80e-01,
-1.691100e-02,-8.80e-01,
-1.691000e-02,-8.80e-01,
-1.690900e-02,-8.80e-01,
-1.690800e-02,-8.80e-01,
-1.690700e-02,-8.40e-01,
-1.690600e-02,-8.80e-01,
-1.690500e-02,-8.80e-01,
-1.690400e-02,-8.40e-01,
-1.690300e-02,-8.40e-01,
-1.690200e-02,-8.40e-01,
-1.690100e-02,-8.40e-01,
-1.690000e-02,-8.40e-01,
-1.689900e-02,-8.40e-01,
-1.689800e-02,-8.40e-01,
-1.689700e-02,-8.40e-01,
-1.689600e-02,-8.40e-01,
-1.689500e-02,-8.40e-01,
-1.689400e-02,-8.40e-01,
-1.689300e-02,-8.40e-01,
-1.689200e-02,-8.40e-01,
-1.689100e-02,-8.40e-01,
-1.689000e-02,-8.40e-01,
-1.688900e-02,-8.40e-01,
-1.688800e-02,-8.40e-01,
-1.688700e-02,-8.40e-01,
-1.688600e-02,-8.00e-01,
-1.688500e-02,-8.00e-01,
-1.688400e-02,-8.00e-01,
-1.688300e-02,-8.00e-01,
-1.688200e-02,-8.00e-01,
-1.688100e-02,-8.00e-01,
-1.688000e-02,-8.00e-01,
-1.687900e-02,-8.00e-01,
-1.687800e-02,-8.00e-01,
-1.687700e-02,-8.00e-01,
-1.687600e-02,-8.00e-01,
-1.687500e-02,-8.00e-01,
-1.687400e-02,-7.60e-01,
-1.687300e-02,-8.00e-01,
-1.687200e-02,-8.00e-01,
-1.687100e-02,-7.60e-01,
-1.687000e-02,-7.60e-01,
-1.686900e-02,-7.60e-01,
-1.686800e-02,-7.60e-01,
-1.686700e-02,-7.60e-01,
-1.686600e-02,-7.60e-01,
-1.686500e-02,-7.60e-01,
-1.686400e-02,-7.60e-01,
-1.686300e-02,-7.60e-01,
-1.686200e-02,-7.60e-01,
-1.686100e-02,-7.60e-01,
-1.686000e-02,-7.60e-01,
-1.685900e-02,-7.60e-01,
-1.685800e-02,-7.60e-01,
-1.685700e-02,-7.60e-01,
-1.685600e-02,-7.20e-01,
-1.685500e-02,-7.60e-01,
-1.685400e-02,-7.20e-01,
-1.685300e-02,-7.20e-01,
-1.685200e-02,-7.20e-01,
-1.685100e-02,-7.20e-01,
-1.685000e-02,-7.20e-01,
-1.684900e-02,-7.20e-01,
-1.684800e-02,-7.20e-01,
-1.684700e-02,-7.20e-01,
-1.684600e-02,-7.20e-01,
-1.684500e-02,-7.20e-01,
-1.684400e-02,-7.20e-01,
-1.684300e-02,-7.20e-01,
-1.684200e-02,-7.20e-01,
-1.684100e-02,-7.20e-01,
-1.684000e-02,-7.20e-01,
-1.683900e-02,-6.80e-01,
-1.683800e-02,-6.80e-01,
-1.683700e-02,-6.80e-01,
-1.683600e-02,-6.80e-01,
-1.683500e-02,-6.80e-01,
-1.683400e-02,-6.80e-01,
-1.683300e-02,-6.80e-01,
-1.683200e-02,-6.80e-01,
-1.683100e-02,-6.80e-01,
-1.683000e-02,-6.80e-01,
-1.682900e-02,-6.80e-01,
-1.682800e-02,-6.80e-01,
-1.682700e-02,-6.80e-01,
-1.682600e-02,-6.80e-01,
-1.682500e-02,-6.80e-01,
-1.682400e-02,-6.80e-01,
-1.682300e-02,-6.80e-01,
-1.682200e-02,-6.40e-01,
-1.682100e-02,-6.80e-01,
-1.682000e-02,-6.40e-01,
-1.681900e-02,-6.40e-01,
-1.681800e-02,-6.40e-01,
-1.681700e-02,-6.40e-01,
-1.681600e-02,-6.40e-01,
-1.681500e-02,-6.40e-01,
-1.681400e-02,-6.40e-01,
-1.681300e-02,-6.40e-01,
-1.681200e-02,-6.40e-01,
-1.681100e-02,-6.40e-01,
-1.681000e-02,-6.40e-01,
-1.680900e-02,-6.40e-01,
-1.680800e-02,-6.40e-01,
-1.680700e-02,-6.40e-01,
-1.680600e-02,-6.40e-01,
-1.680500e-02,-6.00e-01,
-1.680400e-02,-6.00e-01,
-1.680300e-02,-6.00e-01,
-1.680200e-02,-6.00e-01,
-1.680100e-02,-6.00e-01,
-1.680000e-02,-6.00e-01,
-1.679900e-02,-6.00e-01,
-1.679800e-02,-6.00e-01,
-1.679700e-02,-6.00e-01,
-1.679600e-02,-5.60e-01,
-1.679500e-02,-6.00e-01,
-1.679400e-02,-6.00e-01,
-1.679300e-02,-6.00e-01,
-1.679200e-02,-6.00e-01,
-1.679100e-02,-6.00e-01,
-1.679000e-02,-5.60e-01,
-1.678900e-02,-5.60e-01,
-1.678800e-02,-5.60e-01,
-1.678700e-02,-5.60e-01,
-1.678600e-02,-5.60e-01,
-1.678500e-02,-5.60e-01,
-1.678400e-02,-5.60e-01,
-1.678300e-02,-5.60e-01,
-1.678200e-02,-5.60e-01,
-1.678100e-02,-5.60e-01,
-1.678000e-02,-5.60e-01,
-1.677900e-02,-5.60e-01,
-1.677800e-02,-5.60e-01,
-1.677700e-02,-5.60e-01,
-1.677600e-02,-5.60e-01,
-1.677500e-02,-5.60e-01,
-1.677400e-02,-5.60e-01,
-1.677300e-02,-5.60e-01,
-1.677200e-02,-5.60e-01,
-1.677100e-02,-5.60e-01,
-1.677000e-02,-5.60e-01,
-1.676900e-02,-5.20e-01,
-1.676800e-02,-5.20e-01,
-1.676700e-02,-5.20e-01,
-1.676600e-02,-5.20e-01,
-1.676500e-02,-5.20e-01,
-1.676400e-02,-5.20e-01,
-1.676300e-02,-5.20e-01,
-1.676200e-02,-5.20e-01,
-1.676100e-02,-5.20e-01,
-1.676000e-02,-5.20e-01,
-1.675900e-02,-5.20e-01,
-1.675800e-02,-4.80e-01,
-1.675700e-02,-4.80e-01,
-1.675600e-02,-4.80e-01,
-1.675500e-02,-4.80e-01,
-1.675400e-02,-4.80e-01,
-1.675300e-02,-4.80e-01,
-1.675200e-02,-4.80e-01,
-1.675100e-02,-4.80e-01,
-1.675000e-02,-4.80e-01,
-1.674900e-02,-4.80e-01,
-1.674800e-02,-4.80e-01,
-1.674700e-02,-4.80e-01,
-1.674600e-02,-4.80e-01,
-1.674500e-02,-4.80e-01,
-1.674400e-02,-4.80e-01,
-1.674300e-02,-4.80e-01,
-1.674200e-02,-4.80e-01,
-1.674100e-02,-4.80e-01,
-1.674000e-02,-4.80e-01,
-1.673900e-02,-4.40e-01,
-1.673800e-02,-4.40e-01,
-1.673700e-02,-4.40e-01,
-1.673600e-02,-4.40e-01,
-1.673500e-02,-4.40e-01,
-1.673400e-02,-4.40e-01,
-1.673300e-02,-4.40e-01,
-1.673200e-02,-4.40e-01,
-1.673100e-02,-4.40e-01,
-1.673000e-02,-4.40e-01,
-1.672900e-02,-4.40e-01,
-1.672800e-02,-4.40e-01,
-1.672700e-02,-4.40e-01,
-1.672600e-02,-4.40e-01,
-1.672500e-02,-4.40e-01,
-1.672400e-02,-4.40e-01,
-1.672300e-02,-4.00e-01,
-1.672200e-02,-4.00e-01,
-1.672100e-02,-4.00e-01,
-1.672000e-02,-4.00e-01,
-1.671900e-02,-4.00e-01,
-1.671800e-02,-4.00e-01,
-1.671700e-02,-4.00e-01,
-1.671600e-02,-4.00e-01,
-1.671500e-02,-4.00e-01,
-1.671400e-02,-4.00e-01,
-1.671300e-02,-4.00e-01,
-1.671200e-02,-4.00e-01,
-1.671100e-02,-4.00e-01,
-1.671000e-02,-4.00e-01,
-1.670900e-02,-4.00e-01,
-1.670800e-02,-4.00e-01,
-1.670700e-02,-3.60e-01,
-1.670600e-02,-4.00e-01,
-1.670500e-02,-4.00e-01,
-1.670400e-02,-3.60e-01,
-1.670300e-02,-3.60e-01,
-1.670200e-02,-3.60e-01,
-1.670100e-02,-4.00e-01,
-1.670000e-02,-3.60e-01,
-1.669900e-02,-3.60e-01,
-1.669800e-02,-3.60e-01,
-1.669700e-02,-3.60e-01,
-1.669600e-02,-3.60e-01,
-1.669500e-02,-3.60e-01,
-1.669400e-02,-3.60e-01,
-1.669300e-02,-3.60e-01,
-1.669200e-02,-3.60e-01,
-1.669100e-02,-3.60e-01,
-1.669000e-02,-3.60e-01,
-1.668900e-02,-3.60e-01,
-1.668800e-02,-3.60e-01,
-1.668700e-02,-3.60e-01,
-1.668600e-02,-3.20e-01,
-1.668500e-02,-3.60e-01,
-1.668400e-02,-3.20e-01,
-1.668300e-02,-3.20e-01,
-1.668200e-02,-3.20e-01,
-1.668100e-02,-3.20e-01,
-1.668000e-02,-3.20e-01,
-1.667900e-02,-3.20e-01,
-1.667800e-02,-3.20e-01,
-1.667700e-02,-3.20e-01,
-1.667600e-02,-3.20e-01,
-1.667500e-02,-3.20e-01,
-1.667400e-02,-3.20e-01,
-1.667300e-02,-3.20e-01,
-1.667200e-02,-3.20e-01,
-1.667100e-02,-3.20e-01,
-1.667000e-02,-3.20e-01,
-1.666900e-02,-3.20e-01,
-1.666800e-02,-3.20e-01,
-1.666700e-02,-2.80e-01,
-1.666600e-02,-3.20e-01,
-1.666500e-02,-2.80e-01,
-1.666400e-02,-3.20e-01,
-1.666300e-02,-2.80e-01,
-1.666200e-02,-2.80e-01,
-1.666100e-02,-2.80e-01,
-1.666000e-02,-2.80e-01,
-1.665900e-02,-2.80e-01,
-1.665800e-02,-2.80e-01,
-1.665700e-02,-2.80e-01,
-1.665600e-02,-2.80e-01,
-1.665500e-02,-2.80e-01,
-1.665400e-02,-2.80e-01,
-1.665300e-02,-2.80e-01,
-1.665200e-02,-2.80e-01,
-1.665100e-02,-2.80e-01,
-1.665000e-02,-2.80e-01,
-1.664900e-02,-2.80e-01,
-1.664800e-02,-2.80e-01,
-1.664700e-02,-2.40e-01,
-1.664600e-02,-2.40e-01,
-1.664500e-02,-2.40e-01,
-1.664400e-02,-2.40e-01,
-1.664300e-02,-2.40e-01,
-1.664200e-02,-2.40e-01,
-1.664100e-02,-2.40e-01,
-1.664000e-02,-2.40e-01,
-1.663900e-02,-2.40e-01,
-1.663800e-02,-2.40e-01,
-1.663700e-02,-2.40e-01,
-1.663600e-02,-2.40e-01,
-1.663500e-02,-2.40e-01,
-1.663400e-02,-2.40e-01,
-1.663300e-02,-2.40e-01,
-1.663200e-02,-2.40e-01,
-1.663100e-02,-2.00e-01,
-1.663000e-02,-2.40e-01,
-1.662900e-02,-2.00e-01,
-1.662800e-02,-2.40e-01,
-1.662700e-02,-2.00e-01,
-1.662600e-02,-2.00e-01,
-1.662500e-02,-2.00e-01,
-1.662400e-02,-2.00e-01,
-1.662300e-02,-2.00e-01,
-1.662200e-02,-2.00e-01,
-1.662100e-02,-2.00e-01,
-1.662000e-02,-2.00e-01,
-1.661900e-02,-2.00e-01,
-1.661800e-02,-2.00e-01,
-1.661700e-02,-2.00e-01,
-1.661600e-02,-2.00e-01,
-1.661500e-02,-2.00e-01,
-1.661400e-02,-2.00e-01,
-1.661300e-02,-2.00e-01,
-1.661200e-02,-1.60e-01,
-1.661100e-02,-1.60e-01,
-1.661000e-02,-1.60e-01,
-1.660900e-02,-1.60e-01,
-1.660800e-02,-1.60e-01,
-1.660700e-02,-1.60e-01,
-1.660600e-02,-1.60e-01,
-1.660500e-02,-1.60e-01,
-1.660400e-02,-1.60e-01,
-1.660300e-02,-1.60e-01,
-1.660200e-02,-2.00e-01,
-1.660100e-02,-1.60e-01,
-1.660000e-02,-1.60e-01,
-1.659900e-02,-1.60e-01,
-1.659800e-02,-1.60e-01,
-1.659700e-02,-1.60e-01,
-1.659600e-02,-1.60e-01,
-1.659500e-02,-1.60e-01,
-1.659400e-02,-1.60e-01,
-1.659300e-02,-1.60e-01,
-1.659200e-02,-1.60e-01,
-1.659100e-02,-1.20e-01,
-1.659000e-02,-1.60e-01,
-1.658900e-02,-1.20e-01,
-1.658800e-02,-1.20e-01,
-1.658700e-02,-1.20e-01,
-1.658600e-02,-1.20e-01,
-1.658500e-02,-1.20e-01,
-1.658400e-02,-1.20e-01,
-1.658300e-02,-1.20e-01,
-1.658200e-02,-1.20e-01,
-1.658100e-02,-1.20e-01,
-1.658000e-02,-1.20e-01,
-1.657900e-02,-1.20e-01,
-1.657800e-02,-1.20e-01,
-1.657700e-02,-8.00e-02,
-1.657600e-02,-1.20e-01,
-1.657500e-02,-8.00e-02,
-1.657400e-02,-8.00e-02,
-1.657300e-02,-8.00e-02,
-1.657200e-02,-8.00e-02,
-1.657100e-02,-8.00e-02,
-1.657000e-02,-8.00e-02,
-1.656900e-02,-8.00e-02,
-1.656800e-02,-8.00e-02,
-1.656700e-02,-8.00e-02,
-1.656600e-02,-8.00e-02,
-1.656500e-02,-8.00e-02,
-1.656400e-02,-8.00e-02,
-1.656300e-02,-8.00e-02,
-1.656200e-02,-8.00e-02,
-1.656100e-02,-8.00e-02,
-1.656000e-02,-8.00e-02,
-1.655900e-02,-8.00e-02,
-1.655800e-02,-8.00e-02,
-1.655700e-02,-8.00e-02,
-1.655600e-02,-8.00e-02,
-1.655500e-02,-8.00e-02,
-1.655400e-02,-8.00e-02,
-1.655300e-02,-8.00e-02,
-1.655200e-02,-8.00e-02,
-1.655100e-02,-4.00e-02,
-1.655000e-02,-4.00e-02,
-1.654900e-02,-4.00e-02,
-1.654800e-02,-4.00e-02,
-1.654700e-02,-4.00e-02,
-1.654600e-02,-8.00e-02,
-1.654500e-02,-4.00e-02,
-1.654400e-02,-4.00e-02,
-1.654300e-02,-4.00e-02,
-1.654200e-02,-4.00e-02,
-1.654100e-02,-4.00e-02,
-1.654000e-02,-4.00e-02,
-1.653900e-02,-4.00e-02,
-1.653800e-02,-4.00e-02,
-1.653700e-02,-4.00e-02,
-1.653600e-02,-4.00e-02,
-1.653500e-02,-4.00e-02,
-1.653400e-02,-4.00e-02,
-1.653300e-02,-4.00e-02,
-1.653200e-02,-4.00e-02,
-1.653100e-02,-4.00e-02,
-1.653000e-02,0.00e+00,
-1.652900e-02,0.00e+00,
-1.652800e-02,0.00e+00,
-1.652700e-02,0.00e+00,
-1.652600e-02,0.00e+00,
-1.652500e-02,0.00e+00,
-1.652400e-02,0.00e+00,
-1.652300e-02,0.00e+00,
-1.652200e-02,0.00e+00,
-1.652100e-02,0.00e+00,
-1.652000e-02,0.00e+00,
-1.651900e-02,0.00e+00,
-1.651800e-02,0.00e+00,
-1.651700e-02,0.00e+00,
-1.651600e-02,0.00e+00,
-1.651500e-02,0.00e+00,
-1.651400e-02,0.00e+00,
-1.651300e-02,0.00e+00,
-1.651200e-02,0.00e+00,
-1.651100e-02,0.00e+00,
-1.651000e-02,4.00e-02,
-1.650900e-02,4.00e-02,
-1.650800e-02,4.00e-02,
-1.650700e-02,4.00e-02,
-1.650600e-02,4.00e-02,
-1.650500e-02,4.00e-02,
-1.650400e-02,4.00e-02,
-1.650300e-02,4.00e-02,
-1.650200e-02,4.00e-02,
-1.650100e-02,4.00e-02,
-1.650000e-02,4.00e-02,
-1.649900e-02,4.00e-02,
-1.649800e-02,4.00e-02,
-1.649700e-02,4.00e-02,
-1.649600e-02,4.00e-02,
-1.649500e-02,4.00e-02,
-1.649400e-02,4.00e-02,
-1.649300e-02,4.00e-02,
-1.649200e-02,8.00e-02,
-1.649100e-02,4.00e-02,
-1.649000e-02,4.00e-02,
-1.648900e-02,8.00e-02,
-1.648800e-02,4.00e-02,
-1.648700e-02,4.00e-02,
-1.648600e-02,8.00e-02,
-1.648500e-02,8.00e-02,
-1.648400e-02,4.00e-02,
-1.648300e-02,8.00e-02,
-1.648200e-02,8.00e-02,
-1.648100e-02,8.00e-02,
-1.648000e-02,8.00e-02,
-1.647900e-02,8.00e-02,
-1.647800e-02,8.00e-02,
-1.647700e-02,8.00e-02,
-1.647600e-02,8.00e-02,
-1.647500e-02,8.00e-02,
-1.647400e-02,8.00e-02,
-1.647300e-02,8.00e-02,
-1.647200e-02,1.20e-01,
-1.647100e-02,1.20e-01,
-1.647000e-02,8.00e-02,
-1.646900e-02,1.20e-01,
-1.646800e-02,8.00e-02,
-1.646700e-02,1.20e-01,
-1.646600e-02,1.20e-01,
-1.646500e-02,1.20e-01,
-1.646400e-02,1.20e-01,
-1.646300e-02,1.20e-01,
-1.646200e-02,1.20e-01,
-1.646100e-02,1.20e-01,
-1.646000e-02,1.20e-01,
-1.645900e-02,1.20e-01,
-1.645800e-02,1.20e-01,
-1.645700e-02,1.20e-01,
-1.645600e-02,1.20e-01,
-1.645500e-02,1.20e-01,
-1.645400e-02,1.20e-01,
-1.645300e-02,1.20e-01,
-1.645200e-02,1.20e-01,
-1.645100e-02,1.60e-01,
-1.645000e-02,1.20e-01,
-1.644900e-02,1.20e-01,
-1.644800e-02,1.60e-01,
-1.644700e-02,1.20e-01,
-1.644600e-02,1.20e-01,
-1.644500e-02,1.60e-01,
-1.644400e-02,1.60e-01,
-1.644300e-02,1.20e-01,
-1.644200e-02,1.60e-01,
-1.644100e-02,1.60e-01,
-1.644000e-02,1.60e-01,
-1.643900e-02,1.60e-01,
-1.643800e-02,1.60e-01,
-1.643700e-02,1.60e-01,
-1.643600e-02,1.60e-01,
-1.643500e-02,1.60e-01,
-1.643400e-02,1.60e-01,
-1.643300e-02,1.60e-01,
-1.643200e-02,1.60e-01,
-1.643100e-02,2.00e-01,
-1.643000e-02,2.00e-01,
-1.642900e-02,1.60e-01,
-1.642800e-02,2.00e-01,
-1.642700e-02,2.00e-01,
-1.642600e-02,1.60e-01,
-1.642500e-02,1.60e-01,
-1.642400e-02,1.60e-01,
-1.642300e-02,2.00e-01,
-1.642200e-02,2.00e-01,
-1.642100e-02,2.00e-01,
-1.642000e-02,2.00e-01,
-1.641900e-02,1.60e-01,
-1.641800e-02,2.00e-01,
-1.641700e-02,2.00e-01,
-1.641600e-02,2.00e-01,
-1.641500e-02,2.00e-01,
-1.641400e-02,2.00e-01,
-1.641300e-02,1.60e-01,
-1.641200e-02,1.60e-01,
-1.641100e-02,1.60e-01,
-1.641000e-02,1.20e-01,
-1.640900e-02,1.20e-01,
-1.640800e-02,1.20e-01,
-1.640700e-02,1.20e-01,
-1.640600e-02,8.00e-02,
-1.640500e-02,8.00e-02,
-1.640400e-02,8.00e-02,
-1.640300e-02,8.00e-02,
-1.640200e-02,4.00e-02,
-1.640100e-02,4.00e-02,
-1.640000e-02,4.00e-02,
-1.639900e-02,4.00e-02,
-1.639800e-02,4.00e-02,
-1.639700e-02,0.00e+00,
-1.639600e-02,0.00e+00,
-1.639500e-02,0.00e+00,
-1.639400e-02,0.00e+00,
-1.639300e-02,0.00e+00,
-1.639200e-02,-4.00e-02,
-1.639100e-02,0.00e+00,
-1.639000e-02,0.00e+00,
